[
  {
    "description": "Provide advanced example with adding PROXY_COMMAND for complex quotes.",
    "type": "minor"
  },
  {
    "description": "Update dependencies for openssh-client, sshpass in Dockerfile.",
    "type": "minor"
  }
]