{
  "changes": [
    {
      "description": "Internal maintenance: Update bitbucket-pipes-toolkit version to 4.0.0. Update packages in test/requirements.txt.",
      "type": "minor"
    },
    {
      "description": "Internal maintenance: Update docker image in Dockerfile to python:3.10.",
      "type": "minor"
    },
    {
      "description": "Internal maintenance: Update community link.",
      "type": "patch"
    },
    {
      "description": "Internal maintenance: Update docker image and pipes versions in pipelines configuration file and README.",
      "type": "patch"
    }
  ],
  "created_at": "2023-07-24T15:00:03.176994+00:00",
  "version": "1.3.0"
}